Microprocessor.sim/sim_1/behav/xsim/top_tb.vcd
$date
   Mon Apr 21 01:11:19 2025
$end

$version
  2024.2.0
  $dumpfile ("top_tb.vcd") 
$end

$timescale
  1ps
$end

$scope module top_tb $end
$var reg 1 ! clk $end
$var reg 1 " reset $end
$var wire 8 # debug_out [7:0] $end
$scope module uut $end
$var wire 1 $ clk $end
$var wire 1 % reset $end
$var wire 8 # debug_out [7:0] $end
$var wire 8 & pc_out [7:0] $end
$var wire 8 ' adder_out [7:0] $end
$var wire 8 ( dmem_out [7:0] $end
$var wire 8 ) alu_out [7:0] $end
$var wire 8 * acc_out [7:0] $end
$var wire 8 + dr_out [7:0] $end
$var wire 8 , mux2_out [7:0] $end
$var wire 12 - ir_out [11:0] $end
$var wire 12 . pmem_out [11:0] $end
$var wire 4 / sr_out [3:0] $end
$var wire 1 0 pc_e $end
$var wire 1 1 acc_e $end
$var wire 1 2 sr_e $end
$var wire 1 3 ir_e $end
$var wire 1 4 dr_e $end
$var wire 1 5 pmem_e $end
$var wire 1 6 dmem_e $end
$var wire 1 7 alu_e $end
$var wire 1 8 dmem_we $end
$var wire 1 9 mux2_sel $end
$var wire 1 : pmem_le $end
$var wire 4 ; alu_mode [3:0] $end
$var wire 4 < alu_flags [3:0] $end
$var reg 2 = stage [1:0] $end
$scope module pc_inst $end
$var wire 1 $ clk $end
$var wire 1 % reset $end
$var wire 1 0 enable $end
$var wire 8 ' next_pc [7:0] $end
$var wire 4 > opcode [11:8] $end
$var reg 8 ? pc_out [7:0] $end
$upscope $end
$scope module IR_unit $end
$var wire 1 $ clk $end
$var wire 1 % reset $end
$var wire 1 3 ir_e $end
$var wire 12 . pmem_out [11:0] $end
$var wire 12 - ir_out [11:0] $end
$var reg 12 @ IR [11:0] $end
$upscope $end
$scope module ACC_unit $end
$var wire 1 $ clk $end
$var wire 1 % reset $end
$var wire 1 1 acc_en $end
$var wire 8 ) alu_out [7:0] $end
$var wire 8 * acc_out [7:0] $end
$var reg 8 A ACC [7:0] $end
$upscope $end
$scope module DR_unit $end
$var wire 1 $ clk $end
$var wire 1 % reset $end
$var wire 1 4 dr_e $end
$var wire 8 ( dmem_out [7:0] $end
$var wire 8 + dr_out [7:0] $end
$var reg 8 B DR [7:0] $end
$upscope $end
$scope module SR_unit $end
$var wire 1 $ clk $end
$var wire 1 % reset $end
$var wire 1 2 sr_e $end
$var wire 4 < alu_flags [3:0] $end
$var wire 4 / sr_out [3:0] $end
$var reg 4 C SR [3:0] $end
$upscope $end
$scope module pc_adder $end
$var wire 1 $ clk $end
$var wire 8 & In [7:0] $end
$var reg 8 D Out [7:0] $end
$upscope $end
$scope module alu $end
$var wire 8 * Operand1 [7:0] $end
$var wire 8 , Operand2 [7:0] $end
$var wire 1 7 E $end
$var wire 4 ; Mode [3:0] $end
$var wire 4 E CFlags [3:0] $end
$var reg 8 F Out [7:0] $end
$var reg 4 G Flags [3:0] $end
$var reg 9 H temp_result [8:0] $end
$upscope $end
$scope module control $end
$var wire 2 I stage [1:0] $end
$var wire 12 - IR [11:0] $end
$var wire 4 / SR [3:0] $end
$var reg 1 J PC_E $end
$var reg 1 K Acc_E $end
$var reg 1 L SR_E $end
$var reg 1 M IR_E $end
$var reg 1 N DR_E $end
$var reg 1 O PMem_E $end
$var reg 1 P DMem_E $end
$var reg 1 Q DMem_WE $end
$var reg 1 R ALU_E $end
$var reg 1 S MUX2_Sel $end
$var reg 1 T PMem_LE $end
$var reg 4 U ALU_Mode [3:0] $end
$var wire 8 V opcode [7:0] $end
$upscope $end
$scope module data_memory $end
$var wire 1 $ clk $end
$var wire 1 6 E $end
$var wire 1 8 WE $end
$var wire 4 W Addr [3:0] $end
$var wire 8 * DI [7:0] $end
$var reg 8 X DO [7:0] $end
$upscope $end
$scope module pmem_unit $end
$var wire 1 $ clk $end
$var wire 1 : pmem_le $end
$var wire 1 5 pmem_e $end
$var wire 8 & pc_out [7:0] $end
$var wire 20 Y acc_out [19:0] $end
$var wire 20 Z pmem_out [19:0] $end
$var reg 20 [ pmem_do [19:0] $end
$upscope $end
$scope module mux2_unit $end
$var wire 1 9 mux2_sel $end
$var wire 8 + dr_out [7:0] $end
$var wire 12 - ir_out [11:0] $end
$var wire 8 , mux2_out [7:0] $end
$var reg 8 \ mux2_out_reg [7:0] $end
$upscope $end
$upscope $end
$upscope $end
$enddefinitions $end

#0
$dumpvars
0!
1"
b0 #
0$
1%
b0 &
bx '
bz (
b0 )
b0 *
b0 +
b0 ,
b0 -
b101 .
b0 /
10
01
02
13
04
15
06
07
08
09
0:
b0 ;
bx <
b0 =
b0 >
b0 ?
b0 @
b0 A
b0 B
b0 C
bx D
b0 E
b0 F
bx G
b0 H
b0 I
1J
0K
0L
1M
0N
1O
0P
0Q
0R
0S
0T
b0 U
b0 V
b0 W
bz X
bz00000000 Y
b101 Z
b101 [
b0 \
$end

#5000
1!
1$
b1 '
b1 D

#10000
0!
0$

#15000
1!
1$

#20000
0!
0"
0$
0%

#25000
1!
1$
b1 &
b101 )
b101 ,
b101 -
b0 .
00
11
03
05
17
b1100 ;
b0xx <
b1 =
b0 >
b1 ?
b101 @
b101 F
b0xx G
b1 I
0J
1K
0M
0O
1R
b1100 U
b101 W
b0 Z
b0 [
b101 \

#30000
0!
0$

#35000
1!
b101 #
1$
b10 '
b0 )
b101 *
01
07
b0 ;
b10 =
b101 A
b10 D
b0 F
b10 I
0K
0R
b0 U
bz00000101 Y

#40000
0!
0$

#45000
1!
1$
b11 =
b11 I

#50000
0!
0$

#55000
1!
1$
b100000011 .
10
13
15
b0 =
b0 I
1J
1M
1O
b10000000100000011 Z
b10000000100000011 [

#60000
0!
0$

#65000
1!
1$
b10 &
b1000 )
b11 ,
b100000011 -
b0 .
00
11
12
03
05
17
b1 ;
b0x0 <
b1 =
b1 >
b10 ?
b100000011 @
b1000 F
b0x0 G
b1000 H
b1 I
0J
1K
1L
0M
0O
1R
b1 U
b10000 V
b11 W
b0 Z
b0 [
b11 \

#70000
0!
0$

#75000
1!
b1000 #
1$
b11 '
b0 )
b1000 *
b0x0 /
01
02
07
b0 ;
b10 =
b1000 A
b0x0 C
b11 D
b0 F
b0 H
b10 I
0K
0L
0R
b0 U
bz00001000 Y

#80000
0!
0$

#85000
1!
1$
b11 =
b11 I

#90000
0!
0$

#95000
1!
1$
b1000000001 .
10
13
15
b0 =
b0 I
1J
1M
1O
b100000001000000001 Z
b100000001000000001 [

#100000
0!
0$

#105000
1!
1$
b11 &
b111 )
b1 ,
b1000000001 -
b0 .
00
11
12
03
05
17
b10 ;
b1 =
b10 >
b11 ?
b1000000001 @
b111 F
b111 H
b1 I
0J
1K
1L
0M
0O
1R
b10 U
b100000 V
b1 W
b0 Z
b0 [
b1 \

#110000
0!
0$

#115000
1!
b111 #
1$
b100 '
b0 )
b111 *
01
02
07
b0 ;
b10 =
b111 A
b100 D
b0 F
b0 H
b10 I
0K
0L
0R
b0 U
bz00000111 Y

#120000
0!
0$

#125000
1!
1$
b11 =
b11 I

#130000
0!
0$

#135000
1!
1$
b1100001111 .
10
13
15
b0 =
b0 I
1J
1M
1O
b110000001100001111 Z
b110000001100001111 [

#140000
0!
0$

#145000
1!
1$
b100 &
b111 )
b1111 ,
b1100001111 -
b0 .
00
11
12
03
05
17
b11 ;
b1 =
b11 >
b100 ?
b1100001111 @
b111 F
b1 I
0J
1K
1L
0M
0O
1R
b11 U
b110000 V
b1111 W
b0 Z
b0 [
b1111 \

#150000
0!
0$

#155000
1!
1$
b101 '
b0 )
01
02
07
b0 ;
b10 =
b101 D
b0 F
b10 I
0K
0L
0R
b0 U

#160000
0!
0$

#165000
1!
1$
b11 =
b11 I

#170000
0!
0$

#175000
1!
1$
b10011110000 .
10
13
15
b0 =
b0 I
1J
1M
1O
b1000000010011110000 Z
b1000000010011110000 [

#180000
0!
0$

#185000
1!
1$
b101 &
b11110111 )
b11110000 ,
b10011110000 -
b0 .
00
11
12
03
05
17
b100 ;
b10x0 <
b1 =
b100 >
b101 ?
b10011110000 @
b11110111 F
b10x0 G
b1 I
0J
1K
1L
0M
0O
1R
b100 U
b1000000 V
b0 W
b0 Z
b0 [
b11110000 \

#190000
0!
0$

#195000
1!
b11110111 #
1$
b110 '
b0 )
b11110111 *
b10x0 /
01
02
07
b0 ;
b10 =
b11110111 A
b10x0 C
b110 D
b0 F
b10 I
0K
0L
0R
b0 U
bz11110111 Y

#200000
0!
0$

#205000
1!
1$
b11 =
b11 I

