Microprocessor.sim/sim_1/behav/xsim/top_tb.vcd
$date
   Sat Apr 26 17:06:50 2025
$end

$version
  2024.2.0
  $dumpfile ("top_tb.vcd") 
$end

$timescale
  1ps
$end

$scope module top_tb $end
$var reg 1 ! clk $end
$var reg 1 " reset $end
$var wire 8 # debug_out [7:0] $end
$scope module uut $end
$var wire 1 $ clk $end
$var wire 1 % reset $end
$var wire 8 # debug_out [7:0] $end
$var wire 8 & pc_out [7:0] $end
$var wire 8 ' adder_out [7:0] $end
$var wire 8 ( dmem_out [7:0] $end
$var wire 8 ) alu_out [7:0] $end
$var wire 8 * acc_out [7:0] $end
$var wire 8 + dr_out [7:0] $end
$var wire 8 , mux2_out [7:0] $end
$var wire 16 - ir_out [15:0] $end
$var wire 16 . pmem_out [15:0] $end
$var wire 4 / sr_out [3:0] $end
$var wire 1 0 pc_e $end
$var wire 1 1 acc_e $end
$var wire 1 2 sr_e $end
$var wire 1 3 ir_e $end
$var wire 1 4 dr_e $end
$var wire 1 5 pmem_e $end
$var wire 1 6 dmem_e $end
$var wire 1 7 alu_e $end
$var wire 1 8 dmem_we $end
$var wire 1 9 mux2_sel $end
$var wire 1 : pmem_le $end
$var wire 4 ; alu_mode [3:0] $end
$var wire 4 < alu_flags [3:0] $end
$var reg 2 = stage [1:0] $end
$scope module pc_inst $end
$var wire 1 $ clk $end
$var wire 1 % reset $end
$var wire 1 0 enable $end
$var wire 8 ' next_pc [7:0] $end
$var wire 8 > opcode [15:8] $end
$var reg 8 ? pc_out [7:0] $end
$upscope $end
$scope module IR_unit $end
$var wire 1 $ clk $end
$var wire 1 % reset $end
$var wire 1 3 ir_e $end
$var wire 16 . pmem_out [15:0] $end
$var wire 16 - ir_out [15:0] $end
$var reg 16 @ IR [15:0] $end
$upscope $end
$scope module ACC_unit $end
$var wire 1 $ clk $end
$var wire 1 % reset $end
$var wire 1 1 acc_en $end
$var wire 8 ) alu_out [7:0] $end
$var wire 8 * acc_out [7:0] $end
$var reg 8 A ACC [7:0] $end
$upscope $end
$scope module DR_unit $end
$var wire 1 $ clk $end
$var wire 1 % reset $end
$var wire 1 4 dr_e $end
$var wire 8 ( dmem_out [7:0] $end
$var wire 8 + dr_out [7:0] $end
$var reg 8 B DR [7:0] $end
$upscope $end
$scope module SR_unit $end
$var wire 1 $ clk $end
$var wire 1 % reset $end
$var wire 1 2 sr_e $end
$var wire 4 < alu_flags [3:0] $end
$var wire 4 / sr_out [3:0] $end
$var reg 4 C SR [3:0] $end
$upscope $end
$scope module pc_adder $end
$var wire 1 $ clk $end
$var wire 8 & In [7:0] $end
$var reg 8 D Out [7:0] $end
$upscope $end
$scope module alu $end
$var wire 8 * Operand1 [7:0] $end
$var wire 8 , Operand2 [7:0] $end
$var wire 1 7 E $end
$var wire 4 ; Mode [3:0] $end
$var wire 4 E CFlags [3:0] $end
$var reg 8 F Out [7:0] $end
$var reg 4 G Flags [3:0] $end
$var reg 9 H temp_result [8:0] $end
$upscope $end
$scope module control $end
$var wire 2 I stage [1:0] $end
$var wire 16 - IR [15:0] $end
$var wire 4 / SR [3:0] $end
$var reg 1 J PC_E $end
$var reg 1 K Acc_E $end
$var reg 1 L SR_E $end
$var reg 1 M IR_E $end
$var reg 1 N DR_E $end
$var reg 1 O PMem_E $end
$var reg 1 P DMem_E $end
$var reg 1 Q DMem_WE $end
$var reg 1 R ALU_E $end
$var reg 1 S MUX2_Sel $end
$var reg 1 T PMem_LE $end
$var reg 4 U ALU_Mode [3:0] $end
$var wire 8 V opcode [7:0] $end
$upscope $end
$scope module data_memory $end
$var wire 1 $ clk $end
$var wire 1 6 E $end
$var wire 1 8 WE $end
$var wire 4 W Addr [3:0] $end
$var wire 8 * DI [7:0] $end
$var reg 8 X DO [7:0] $end
$upscope $end
$scope module pmem_unit $end
$var wire 1 $ clk $end
$var wire 1 : pmem_le $end
$var wire 1 5 pmem_e $end
$var wire 8 & pc_out [7:0] $end
$var wire 16 Y acc_out [15:0] $end
$var wire 16 . pmem_out [15:0] $end
$var reg 16 Z pmem_do [15:0] $end
$upscope $end
$scope module mux2_unit $end
$var wire 1 9 mux2_sel $end
$var wire 8 + dr_out [7:0] $end
$var wire 16 - ir_out [15:0] $end
$var wire 8 , mux2_out [7:0] $end
$var reg 8 [ mux2_out_reg [7:0] $end
$upscope $end
$upscope $end
$upscope $end
$enddefinitions $end

#0
$dumpvars
0!
1"
b0 #
0$
1%
b0 &
bx '
bz (
b0 )
b0 *
b0 +
b0 ,
b0 -
b101 .
b0 /
10
01
02
13
04
15
06
07
08
09
0:
b0 ;
bx <
b0 =
b0 >
b0 ?
b0 @
b0 A
b0 B
b0 C
bx D
b0 E
b0 F
bx G
b0 H
b0 I
1J
0K
0L
1M
0N
1O
0P
0Q
0R
0S
0T
b0 U
b0 V
b0 W
bz X
bz00000000 Y
b101 Z
b0 [
$end

#5000
1!
1$
b1 '
b1 D

#10000
0!
0$

#15000
1!
1$

#20000
0!
0"
0$
0%

#25000
1!
1$
b1 &
b101 )
b101 ,
b101 -
b0 .
00
11
03
05
17
b1100 ;
b0xx <
b1 =
b0 >
b1 ?
b101 @
b101 F
b0xx G
b1 I
0J
1K
0M
0O
1R
b1100 U
b101 W
b0 Z
b101 [

#30000
0!
0$

#35000
1!
b101 #
1$
b10 '
b0 )
b101 *
01
07
b0 ;
b10 =
b101 A
b10 D
b0 F
b10 I
0K
0R
b0 U
bz00000101 Y

#40000
0!
0$

#45000
1!
1$
b11 =
b11 I

#50000
0!
0$

#55000
1!
1$
bx .
10
13
15
b0 =
b0 I
1J
1M
1O
bx Z

#60000
0!
0$

#65000
1!
1$
b10 &
bx ,
bx -
b0 .
00
03
05
b1 =
bx >
b10 ?
bx @
b1 I
0J
0M
0O
bx V
bx W
b0 Z
bx [

#70000
0!
0$

#75000
1!
1$
b11 '
b10 =
b11 D
b10 I

#80000
0!
0$

#85000
1!
1$
b11 =
b11 I

#90000
0!
0$

#95000
1!
1$
bx .
x0
13
15
b0 =
b0 I
xJ
1M
1O
bx Z

#100000
0!
0$

#105000
1!
1$
b0 .
00
03
05
b1 =
b1 I
0J
0M
0O
b0 Z

#110000
0!
0$

#115000
1!
1$
b10 =
b10 I

#120000
0!
0$

#125000
1!
1$
b11 =
b11 I

#130000
0!
0$

#135000
1!
1$
bx .
x0
13
15
b0 =
b0 I
xJ
1M
1O
bx Z

#140000
0!
0$

#145000
1!
1$
b0 .
00
03
05
b1 =
b1 I
0J
0M
0O
b0 Z

#150000
0!
0$

#155000
1!
1$
b10 =
b10 I

#160000
0!
0$

#165000
1!
1$
b11 =
b11 I

#170000
0!
0$

#175000
1!
1$
bx .
x0
13
15
b0 =
b0 I
xJ
1M
1O
bx Z

#180000
0!
0$

#185000
1!
1$
b0 .
00
03
05
b1 =
b1 I
0J
0M
0O
b0 Z

#190000
0!
0$

#195000
1!
1$
b10 =
b10 I

#200000
0!
0$

#205000
1!
1$
b11 =
b11 I

#210000
0!
0$

#215000
1!
1$
bx .
x0
13
15
b0 =
b0 I
xJ
1M
1O
bx Z

#220000
0!
0$

#225000
1!
1$
b0 .
00
03
05
b1 =
b1 I
0J
0M
0O
b0 Z

#230000
0!
0$

#235000
1!
1$
b10 =
b10 I

#240000
0!
0$

#245000
1!
1$
b11 =
b11 I

#250000
0!
0$

#255000
1!
1$
bx .
x0
13
15
b0 =
b0 I
xJ
1M
1O
bx Z

#260000
0!
0$

#265000
1!
1$
b0 .
00
03
05
b1 =
b1 I
0J
0M
0O
b0 Z

#270000
0!
0$

#275000
1!
1$
b10 =
b10 I

#280000
0!
0$

#285000
1!
1$
b11 =
b11 I

#290000
0!
0$

#295000
1!
1$
bx .
x0
13
15
b0 =
b0 I
xJ
1M
1O
bx Z

#300000
0!
0$

#305000
1!
1$
b0 .
00
03
05
b1 =
b1 I
0J
0M
0O
b0 Z

#310000
0!
0$

#315000
1!
1$
b10 =
b10 I

#320000
0!
0$

#325000
1!
1$
b11 =
b11 I

#330000
0!
0$

#335000
1!
1$
bx .
x0
13
15
b0 =
b0 I
xJ
1M
1O
bx Z

#340000
0!
0$

#345000
1!
1$
b0 .
00
03
05
b1 =
b1 I
0J
0M
0O
b0 Z

#350000
0!
0$

#355000
1!
1$
b10 =
b10 I

#360000
0!
0$

#365000
1!
1$
b11 =
b11 I

#370000
0!
0$

#375000
1!
1$
bx .
x0
13
15
b0 =
b0 I
xJ
1M
1O
bx Z

#380000
0!
0$

#385000
1!
1$
b0 .
00
03
05
b1 =
b1 I
0J
0M
0O
b0 Z

#390000
0!
0$

#395000
1!
1$
b10 =
b10 I

#400000
0!
0$

#405000
1!
1$
b11 =
b11 I

#410000
0!
0$

#415000
1!
1$
bx .
x0
13
15
b0 =
b0 I
xJ
1M
1O
bx Z

#420000
0!
0$

#425000
1!
1$
b0 .
00
03
05
b1 =
b1 I
0J
0M
0O
b0 Z

#430000
0!
0$

#435000
1!
1$
b10 =
b10 I

#440000
0!
0$

#445000
1!
1$
b11 =
b11 I

#450000
0!
0$

#455000
1!
1$
bx .
x0
13
15
b0 =
b0 I
xJ
1M
1O
bx Z

#460000
0!
0$

#465000
1!
1$
b0 .
00
03
05
b1 =
b1 I
0J
0M
0O
b0 Z

#470000
0!
0$

#475000
1!
1$
b10 =
b10 I

#480000
0!
0$

#485000
1!
1$
b11 =
b11 I

#490000
0!
0$

#495000
1!
1$
bx .
x0
13
15
b0 =
b0 I
xJ
1M
1O
bx Z

#500000
0!
0$

#505000
1!
1$
b0 .
00
03
05
b1 =
b1 I
0J
0M
0O
b0 Z

#510000
0!
0$

#515000
1!
1$
b10 =
b10 I

#520000
0!
0$

#525000
1!
1$
b11 =
b11 I

#530000
0!
0$

#535000
1!
1$
bx .
x0
13
15
b0 =
b0 I
xJ
1M
1O
bx Z

#540000
0!
0$

#545000
1!
1$
b0 .
00
03
05
b1 =
b1 I
0J
0M
0O
b0 Z

#550000
0!
0$

#555000
1!
1$
b10 =
b10 I

#560000
0!
0$

#565000
1!
1$
b11 =
b11 I

#570000
0!
0$

#575000
1!
1$
bx .
x0
13
15
b0 =
b0 I
xJ
1M
1O
bx Z

#580000
0!
0$

#585000
1!
1$
b0 .
00
03
05
b1 =
b1 I
0J
0M
0O
b0 Z

#590000
0!
0$

#595000
1!
1$
b10 =
b10 I

#600000
0!
0$

#605000
1!
1$
b11 =
b11 I

#610000
0!
0$

#615000
1!
1$
bx .
x0
13
15
b0 =
b0 I
xJ
1M
1O
bx Z

#620000
0!
0$

#625000
1!
1$
b0 .
00
03
05
b1 =
b1 I
0J
0M
0O
b0 Z

#630000
0!
0$

#635000
1!
1$
b10 =
b10 I

#640000
0!
0$

#645000
1!
1$
b11 =
b11 I

#650000
0!
0$

#655000
1!
1$
bx .
x0
13
15
b0 =
b0 I
xJ
1M
1O
bx Z

#660000
0!
0$

#665000
1!
1$
b0 .
00
03
05
b1 =
b1 I
0J
0M
0O
b0 Z

#670000
0!
0$

#675000
1!
1$
b10 =
b10 I

#680000
0!
0$

#685000
1!
1$
b11 =
b11 I

#690000
0!
0$

#695000
1!
1$
bx .
x0
13
15
b0 =
b0 I
xJ
1M
1O
bx Z

#700000
0!
0$

#705000
1!
1$
b0 .
00
03
05
b1 =
b1 I
0J
0M
0O
b0 Z

#710000
0!
0$

#715000
1!
1$
b10 =
b10 I

#720000
0!
0$

#725000
1!
1$
b11 =
b11 I

#730000
0!
0$

#735000
1!
1$
bx .
x0
13
15
b0 =
b0 I
xJ
1M
1O
bx Z

#740000
0!
0$

#745000
1!
1$
b0 .
00
03
05
b1 =
b1 I
0J
0M
0O
b0 Z

#750000
0!
0$

#755000
1!
1$
b10 =
b10 I

#760000
0!
0$

#765000
1!
1$
b11 =
b11 I

#770000
0!
0$

#775000
1!
1$
bx .
x0
13
15
b0 =
b0 I
xJ
1M
1O
bx Z

#780000
0!
0$

#785000
1!
1$
b0 .
00
03
05
b1 =
b1 I
0J
0M
0O
b0 Z

#790000
0!
0$

#795000
1!
1$
b10 =
b10 I

#800000
0!
0$

#805000
1!
1$
b11 =
b11 I

#810000
0!
0$

#815000
1!
1$
bx .
x0
13
15
b0 =
b0 I
xJ
1M
1O
bx Z

#820000
0!
0$

#825000
1!
1$
b0 .
00
03
05
b1 =
b1 I
0J
0M
0O
b0 Z

#830000
0!
0$

#835000
1!
1$
b10 =
b10 I

#840000
0!
0$

#845000
1!
1$
b11 =
b11 I

#850000
0!
0$

#855000
1!
1$
bx .
x0
13
15
b0 =
b0 I
xJ
1M
1O
bx Z

#860000
0!
0$

#865000
1!
1$
b0 .
00
03
05
b1 =
b1 I
0J
0M
0O
b0 Z

#870000
0!
0$

#875000
1!
1$
b10 =
b10 I

#880000
0!
0$

#885000
1!
1$
b11 =
b11 I

#890000
0!
0$

#895000
1!
1$
bx .
x0
13
15
b0 =
b0 I
xJ
1M
1O
bx Z

#900000
0!
0$

#905000
1!
1$
b0 .
00
03
05
b1 =
b1 I
0J
0M
0O
b0 Z

#910000
0!
0$

#915000
1!
1$
b10 =
b10 I

#920000
0!
0$

#925000
1!
1$
b11 =
b11 I

#930000
0!
0$

#935000
1!
1$
bx .
x0
13
15
b0 =
b0 I
xJ
1M
1O
bx Z

#940000
0!
0$

#945000
1!
1$
b0 .
00
03
05
b1 =
b1 I
0J
0M
0O
b0 Z

#950000
0!
0$

#955000
1!
1$
b10 =
b10 I

#960000
0!
0$

#965000
1!
1$
b11 =
b11 I

#970000
0!
0$

#975000
1!
1$
bx .
x0
13
15
b0 =
b0 I
xJ
1M
1O
bx Z

#980000
0!
0$

#985000
1!
1$
b0 .
00
03
05
b1 =
b1 I
0J
0M
0O
b0 Z

#990000
0!
0$

#995000
1!
1$
b10 =
b10 I

